Categories:System
License:GPLv3+
Web Site:https://f-droid.org
Source Code:https://gitlab.com/fdroid/fdroidclient
Issue Tracker:https://gitlab.com/fdroid/fdroidclient/issues
Changelog:https://gitlab.com/fdroid/fdroidclient/raw/HEAD/CHANGELOG.md
Donate:https://f-droid.org/about
FlattrID:343053
Bitcoin:15u8aAPK4jJ5N8wpWJ5gutAyyeHtKX5i18

Auto Name:F-Droid
Summary:Application manager
Description:
Connects to F-Droid compatible repositories. The default repo is hosted at
f-droid.org, which contains only bona fide FOSS.

Android is open in the sense that you are free to install apks from anywhere you
wish, but there are many good reasons for using a client/repository setup:

* Be notified when updates are available
* Keep track of older and beta versions
* Filter apps that aren't compatible with the device
* Find apps via categories and searchable descriptions
* Access associated urls for donations, source code etc.
* Stay safe by checking repo index signatures and apk hashes
.

Repo Type:srclib
Repo:fdroidclient

Build:0.17,8
    commit=c626ce5f6d3e10ae15942f01ff028be310cc695a
    init=rm -f build.xml

Build:0.18,9
    commit=a6c9ed8d06b19315df9ba9041324f78139f7d238
    init=rm -f build.xml

Build:0.19,10
    commit=540b7d0522f4d67a4896697f7342e4c75b4cbf59
    init=rm -f build.xml

Build:0.20,11
    commit=ddacfb856ad66c1c367e20c9cbecbfb15fe00813
    init=rm -f build.xml

Build:0.21,12
    commit=49fa56aa6626a190f2d711120b69e435e9e615b1
    init=rm -f build.xml

Build:0.22,13
    commit=a6a33c942495cc4c74a7cb6e968efe0e00815e68
    init=rm -f build.xml

Build:0.23,14
    commit=aa58a8aad1a1c3832eafb9f1bdd6db8292d2c172
    init=rm -f build.xml

Build:0.24,15
    commit=9b5fe2976443255b95027abd412f1c1e7f3d27b2
    init=rm -f build.xml

Build:0.25,16
    commit=43977cc493e47a4dc841c4192ae8a40fb14b639b
    init=rm -f build.xml

Build:0.28,19
    commit=f881aabe5bd0ac94771b03f1318a6e0972ab4128
    target=android-15

Build:0.29,20
    commit=87b229b95d0909bfd05c65c5670794e743626f6c
    target=android-15

Build:0.30,21
    commit=497cb19840f79b31ae9590f5abd9e4df832b34ee
    target=android-15

Build:0.31,22
    commit=f99f8a544c7cb4d4a48ad09da00ad281af05f2ac
    target=android-15

Build:0.32,23
    commit=cc3970cc243e345416bfc62781ece6eeefd11495
    target=android-15

Build:0.33,24
    commit=58eb580159aa4d54767f0af1736cad233fec2475
    target=android-15

Build:0.34-test,25
    commit=335d27b725b0f92e9e8804ae09518cd47bc7b021
    target=android-15

Build:0.35-test,26
    commit=a06d18b029392669e98359f86c07e442a04e6a13
    target=android-15

Build:0.36-test,27
    commit=647e230c9e888c04bb0554078c5aa81da63548a0
    target=android-15

Build:0.37-test,28
    commit=3c02e3ccc147a34af42cedf7d85f18dc75c8efa8
    target=android-15

Build:0.38,38
    commit=99b52c988d203811f434d6ac40675a63d5ae41ab
    target=android-15

Build:0.39-test,39
    commit=9a7d0b9f10710105d51d8206a7faa4408c60c20d
    target=android-15

Build:0.40,40
    commit=51a67efdf1ee2819bee99d9263b2980dafaf761d
    target=android-15

Build:0.42,42
    commit=36b815095ef51ca4f21887d973dbc0a50575cd65
    target=android-15

Build:0.43,43
    disable=sdk doesn't like tzm (at f2109e4e0bf1597c625221d8d2d10050f146ba5a)
    commit=f2109e4e0bf1597c625221d8d2d10050f146ba5a
    target=android-15

Build:0.44,44
    disable=nasty upgrade bug
    commit=0.44
    target=android-15

Build:0.45,45
    commit=0.45
    target=android-15

Build:0.46,46
    commit=0.46
    target=android-15

Build:0.47-test,47
    commit=0.47-test
    target=android-17

Build:0.48-test,48
    commit=0.48-test
    target=android-17

Build:0.50,50
    commit=0.50

Build:0.51-test,51
    commit=0.51-test

Build:0.52-test,52
    commit=0.52-test
    submodules=yes
    prebuild=rm -rf extern/Universal-Image-Loader/downloads
    update=.,extern/Universal-Image-Loader/library

Build:0.53-test,53
    commit=0.53-test
    submodules=yes
    scandelete=yes

Build:0.54,540
    commit=0.54
    submodules=yes
    scandelete=yes

Build:0.55,550
    commit=0.55
    submodules=yes

Build:0.56-test,560
    commit=0.56-test
    submodules=yes

Build:0.57-test,570
    commit=0.57-test
    submodules=yes

Build:0.58,580
    commit=0.58
    submodules=yes

Build:0.59-test,590
    commit=0.59-test
    submodules=yes

Build:0.61-test,610
    commit=0.61-test
    submodules=yes

Build:0.62,620
    commit=0.62
    submodules=yes

Build:0.63,630
    commit=0.63
    submodules=yes

Build:0.64-test,640
    commit=0.64-test
    submodules=yes

Build:0.65,650
    commit=0.65
    submodules=yes

Build:0.66,660
    commit=0.66
    submodules=yes

Build:0.67-test,670
    commit=0.67-test
    submodules=yes

Build:0.68-test,680
    commit=0.68-test
    submodules=yes

Build:0.69-test,690
    commit=0.69-test
    submodules=yes

Build:0.70-test,700
    commit=0.70-test
    submodules=yes
    prebuild=./ant-prepare.sh
    update=.

Build:0.71,710
    disable=Broken MTM/AndroidPinning
    commit=0.71
    submodules=yes
    prebuild=./ant-prepare.sh
    update=.

Build:0.72,720
    disable=proguard issues
    commit=0.72
    submodules=yes
    prebuild=./ant-prepare.sh
    update=.

Build:0.73,730
    disable=local repos broken
    commit=0.73
    submodules=yes
    prebuild=./ant-prepare.sh
    update=.

Build:0.74,740
    disable=still some proguard issues
    commit=0.74
    submodules=yes
    prebuild=./ant-prepare.sh
    update=.

Build:0.75,750
    disable=repo update progress crasher
    commit=0.75
    submodules=yes
    prebuild=./ant-prepare.sh
    update=.

Build:0.76,760
    commit=0.76
    submodules=yes
    prebuild=./ant-prepare.sh
    update=.

Build:0.77-test,770
    commit=0.77-test
    subdir=F-Droid
    submodules=yes
    prebuild=./ant-prepare.sh
    update=.

Build:0.78,780
    commit=0.78
    subdir=F-Droid
    submodules=yes
    prebuild=./ant-prepare.sh
    update=.

Build:0.79-test,790
    commit=0.79-test
    subdir=F-Droid
    submodules=yes
    prebuild=./ant-prepare.sh
    update=.

Build:0.80-test,800
    commit=0.80-test
    subdir=F-Droid
    submodules=yes
    prebuild=./ant-prepare.sh
    update=.

Build:0.81-test,810
    commit=0.81-test
    subdir=F-Droid
    submodules=yes
    prebuild=./ant-prepare.sh
    update=.

Build:0.82,820
    commit=0.82
    subdir=F-Droid
    submodules=yes
    prebuild=./ant-prepare.sh
    update=.

Build:0.83,830
    commit=0.83
    subdir=F-Droid
    submodules=yes
    prebuild=./ant-prepare.sh
    update=.

Build:0.84-test,840
    commit=0.84-test
    subdir=F-Droid
    submodules=yes
    prebuild=./ant-prepare.sh
    update=.

Build:0.85-test,850
    commit=0.85-test
    subdir=F-Droid
    submodules=yes
    prebuild=./ant-prepare.sh
    update=.

Build:0.86-test,860
    commit=0.86-test
    subdir=F-Droid
    submodules=yes
    prebuild=./ant-prepare.sh
    update=.

Build:0.87-test,870
    commit=0.87-test
    subdir=F-Droid
    submodules=yes
    prebuild=./ant-prepare.sh
    update=.

Build:0.88,880
    commit=0.88
    subdir=F-Droid
    submodules=yes
    prebuild=./ant-prepare.sh
    update=.

Build:0.89-test,890
    commit=0.89-test
    subdir=F-Droid
    submodules=yes
    prebuild=./ant-prepare.sh
    update=.

Build:0.90-test,900
    commit=0.90-test
    subdir=F-Droid
    submodules=yes
    prebuild=./ant-prepare.sh
    update=.

Build:0.91,910
    commit=0.91
    subdir=F-Droid
    submodules=yes
    prebuild=./ant-prepare.sh
    update=.

Build:0.92,920
    commit=0.92
    subdir=F-Droid
    submodules=yes
    prebuild=./ant-prepare.sh
    update=.

Build:0.93-test,930
    commit=0.93-test
    subdir=F-Droid
    submodules=yes
    prebuild=./ant-prepare.sh
    update=.

Build:0.94-test,940
    commit=0.94-test
    subdir=F-Droid
    submodules=yes
    gradle=yes

Build:0.95-alpha1,95001
    commit=0.95-alpha1
    subdir=F-Droid
    submodules=yes
    gradle=yes

Build:0.95-alpha2,95002
    commit=v0.95-alpha2
    subdir=F-Droid
    submodules=yes
    gradle=yes

Build:0.95,95050
    commit=v0.95
    subdir=F-Droid
    submodules=yes
    gradle=yes

Build:0.95.1,95150
    commit=v0.95.1
    subdir=F-Droid
    submodules=yes
    gradle=yes

Build:0.96-alpha1,96001
    commit=v0.96-alpha1
    subdir=F-Droid
    gradle=yes

Build:0.96-alpha2,96002
    commit=v0.96-alpha2
    subdir=F-Droid
    gradle=yes

Build:0.96-alpha3,96003
    commit=v0.96-alpha3
    subdir=F-Droid
    gradle=yes

Build:0.96-alpha4,96004
    commit=v0.96-alpha4
    subdir=F-Droid
    gradle=yes

Build:0.96-alpha5,96005
    commit=v0.96-alpha5
    subdir=F-Droid
    gradle=yes

Build:0.96-alpha6,96006
    commit=v0.96-alpha6
    subdir=F-Droid
    gradle=yes

Build:0.96,96050
    commit=v0.96
    subdir=F-Droid
    gradle=yes
    scanignore=extern/AndroidPinning/res/raw/cacerts

Build:0.96.1,96150
    commit=v0.96.1
    subdir=F-Droid
    gradle=yes
    scanignore=extern/AndroidPinning/res/raw/cacerts

Build:0.97-alpha1,97001
    commit=v0.97-alpha1
    subdir=F-Droid
    gradle=yes
    scanignore=extern/AndroidPinning/res/raw/cacerts

Build:0.97-alpha2,97002
    commit=v0.97-alpha2
    subdir=F-Droid
    gradle=yes

Build:0.97-alpha3,97003
    commit=v0.97-alpha3
    subdir=F-Droid
    gradle=yes

Build:0.97-alpha4,97004
    commit=v0.97-alpha4
    subdir=F-Droid
    gradle=yes

Build:0.97-alpha5,97005
    commit=v0.97-alpha5
    subdir=F-Droid
    gradle=yes

Build:0.97-alpha6,97006
    commit=v0.97-alpha6
    subdir=F-Droid
    gradle=yes

Build:0.97-alpha7,97007
    commit=v0.97-alpha7
    subdir=F-Droid
    gradle=yes

Build:0.97-alpha8,97008
    commit=v0.97-alpha8
    subdir=F-Droid
    gradle=yes

Build:0.97,97050
    commit=v0.97
    subdir=F-Droid
    gradle=yes

Build:0.98-alpha1,98001
    commit=v0.98-alpha1
    subdir=F-Droid
    gradle=yes

Build:0.98-alpha2,98002
    commit=v0.98-alpha2
    subdir=F-Droid
    gradle=yes

Build:0.98-alpha3,98003
    commit=v0.98-alpha3
    subdir=F-Droid
    gradle=yes

Build:0.98-alpha4,98004
    commit=v0.98-alpha4
    subdir=F-Droid
    gradle=yes

Build:0.98-alpha5,98005
    commit=v0.98-alpha5
    subdir=F-Droid
    gradle=yes

Build:0.98-alpha6,98006
    commit=v0.98-alpha6
    subdir=F-Droid
    gradle=yes

Build:0.98-alpha7,98007
    commit=v0.98-alpha7
    subdir=F-Droid
    gradle=yes

Build:0.98,98050
    commit=v0.98
    subdir=F-Droid
    gradle=yes

Build:0.98.1,98150
    commit=v0.98.1
    subdir=F-Droid
    gradle=yes

Build:0.99-alpha1,99001
    commit=v0.99-alpha1
    subdir=F-Droid
    gradle=yes

Build:0.99-alpha2,99002
    commit=v0.99-alpha2
    subdir=F-Droid
    gradle=yes

Build:0.99,99050
    commit=v0.99
    subdir=F-Droid
    gradle=yes

Build:0.99.1,99150
    commit=v0.99.1
    subdir=F-Droid
    gradle=yes

Build:0.99.2,99250
    commit=v0.99.2
    subdir=F-Droid
    gradle=yes

Build:0.100-alpha1,100001
    commit=v0.100-alpha1
    subdir=F-Droid
    gradle=yes

Build:0.100-alpha2,100002
    commit=v0.100-alpha2
    subdir=F-Droid
    gradle=yes

Build:0.100-alpha3,100003
    commit=v0.100-alpha3
    subdir=app
    gradle=yes

Build:0.100-alpha4,100004
    commit=v0.100-alpha4
    subdir=app
    gradle=yes

Build:0.100-alpha5,100005
    commit=v0.100-alpha5
    subdir=app
    gradle=yes

Build:0.100-alpha6,100006
    commit=v0.100-alpha6
    subdir=app
    gradle=yes

Build:0.100-alpha7,100007
    commit=v0.100-alpha7
    subdir=app
    gradle=yes

Build:0.100-alpha8,100008
    commit=v0.100-alpha8
    subdir=app
    gradle=yes

Build:0.100,100050
    commit=v0.100
    subdir=app
    gradle=yes

Build:0.100.1,100150
    commit=v0.100.1
    subdir=app
    gradle=yes

Build:0.101-alpha1,101001
    commit=v0.101-alpha1
    subdir=app
    gradle=yes

Build:0.101-alpha2,101002
    commit=v0.101-alpha2
    subdir=app
    gradle=yes

Build:0.101-alpha3,101003
    commit=v0.101-alpha3
    subdir=app
    gradle=yes

Build:0.101-alpha4,101004
    commit=v0.101-alpha4
    subdir=app
    gradle=yes

Build:0.101-alpha5,101005
    commit=v0.101-alpha5
    subdir=app
    gradle=yes

Build:0.101-alpha6,101006
    commit=v0.101-alpha6
    subdir=app
    gradle=yes

Build:0.101,101050
    commit=v0.101
    subdir=app
    gradle=yes

Archive Policy:12 versions
Auto Update Mode:None
Update Check Mode:Static
Current Version:0.100.1
Current Version Code:100150
